…
duck_con.sql("select * from date_dim")
```

<div class="output execute_result" execution_count="18">

    ┌───────┬─────────┬───────┬───────┬───────┬─────────────────────┐
    │ year  │ quarter │ month │ week  │  dow  │        date         │
    │ int64 │  int64  │ int64 │ int64 │ int64 │      timestamp      │
    ├───────┼─────────┼───────┼───────┼───────┼─────────────────────┤
    │  2000 │       1 │     1 │    52 │     6 │ 2000-01-01 00:00:00 │
    │  2000 │       1 │     1 │    52 │     0 │ 2000-01-02 00:00:00 │
    │  2000 │       1 │     1 │     1 │     1 │ 2000-01-03 00:00:00 │
    │  2000 │       1 │     1 │     1 │     2 │ 2000-01-04 00:00:00 │
    │  2000 │       1 │     1 │     1 │     3 │ 2000-01-05 00:00:00 │
    │  2000 │       1 │     1 │     1 │     4 │ 2000-01-06 00:00:00 │
    │  2000 │       1 │     1 │     1 │     5 │ 2000-01-07 00:00:00 │
    │  2000 │       1 │     1 │     1 │     6 │ 2000-01-08 00:00:00 │
    │  2000 │       1 │     1 │     1 │     0 │ 2000-01-09 00:00:00 │
    │  2000 │       1 │     1 │     2 │     1 │ 2000-01-10 00:00:00 │
    │    ·  │       · │     · │     · │     · │          ·          │
    │    ·  │       · │     · │     · │     · │          ·          │
    │    ·  │       · │     · │     · │     · │          ·          │
    │  2000 │       4 │    11 │    47 │     2 │ 2000-11-21 00:00:00 │
    │  2000 │       4 │    11 │    47 │     3 │ 2000-11-22 00:00:00 │
    │  2000 │       4 │    11 │    47 │     4 │ 2000-11-23 00:00:00 │
    │  2000 │       4 │    11 │    47 │     5 │ 2000-11-24 00:00:00 │
    │  2000 │       4 │    11 │    47 │     6 │ 2000-11-25 00:00:00 │
    │  2000 │       4 │    11 │    47 │     0 │ 2000-11-26 00:00:00 │
    │  2000 │       4 │    11 │    48 │     1 │ 2000-11-27 00:00:00 │
    │  2000 │       4 │    11 │    48 │     2 │ 2000-11-28 00:00:00 │
    │  2000 │       4 │    11 │    48 │     3 │ 2000-11-29 00:00:00 │
    │  2000 │       4 │    11 │    48 │     4 │ 2000-11-30 00:00:00 │
    ├───────┴─────────┴───────┴───────┴───────┴─────────────────────┤
    │ 335 rows (20 shown)                                 6 columns │
…
</div>

<div class="cell code" execution_count="22">

``` python
duck_con.sql(''' select distinct(City),count(distinct(CustomerKey)) as customers,sum(TotalIncludingTax) as Year2000Sale
              from agg_sales_fact_table 
              group by City 
              order by customers desc ''')
```

<div class="output execute_result" execution_count="22">

    ┌─────────────────┬───────────┬───────────────┐
    │      City       │ customers │ Year2000Sale  │
    │     varchar     │   int64   │ decimal(38,2) │
    ├─────────────────┼───────────┼───────────────┤
    │ East Fultonham  │         2 │   45126552.00 │
    │ Akhiok          │         2 │  231603670.40 │
    │ Teutopolis      │         2 │  435594470.00 │
    │ Sinclair        │         2 │  230274819.20 │
    │ Rockwall        │         2 │  238622456.40 │
    │ Corfu           │         1 │  165754998.40 │
    │ Railroad        │         1 │   59889424.00 │
    │ East Mountain   │         1 │   30016876.80 │
    │ Humansville     │         1 │   96700832.00 │
    │ Trumansburg     │         1 │   51709606.50 │
    │   ·             │         · │        ·      │
    │   ·             │         · │        ·      │
    │   ·             │         · │        ·      │
    │ Buell           │         1 │   70072352.00 │
    │ Deer River      │         1 │  125252480.00 │
    │ Hayes Center    │         1 │   31658304.00 │
    │ Spillertown     │         1 │   49040784.00 │
    │ Miesville       │         1 │  152832681.60 │
    │ La Paz          │         1 │  162794989.00 │
    │ Branchburg Park │         1 │   72951001.65 │
    │ Bernie          │         1 │  238399968.00 │
    │ Fortville       │         1 │   92526688.96 │
    │ Oley            │         1 │   10552768.00 │
    ├─────────────────┴───────────┴───────────────┤
    │ 463 rows (20 shown)               3 columns │
…
